Lab 5
…
col <- pers[, c("INJ_SEV", "MAKE", "STATE", "COUNTY")]
danger <- col %>%
  filter(INJ_SEV == 4) %>%
  group_by(STATE, MAKE) %>%
  summarize(n = n()) %>%
  group_by(STATE) %>%
  filter(n == max(n)) %>%
  filter(is.na(MAKE) == FALSE) %>%
  arrange(desc(n))

## `summarise()` regrouping output by 'STATE' (override with `.groups` argument)

danger

## # A tibble: 24 x 3
## # Groups:   STATE [23]
##    STATE  MAKE     n
##    <int> <int> <int>
##  1    39    20   179
##  2    29    20   164
##  3    47    20   147
##  4     1    12   138
##  5    18    20   133
##  6    21    20   129
##  7    28    20   120
##  8    40    20   120
##  9    55    20    98
## 10     5    20    88
## # ... with 14 more rows
…
joinedTables %>% filter(INJ_SEV ==4)

## # A tibble: 37,133 x 107
## # Groups:   SEX [4]
##    STATE ST_CASE VE_TOTAL VE_FORMS PVH_INVL  PEDS PERNOTMVIT PERMVIT PERSONS
##    <int>   <int>    <int>    <int>    <int> <int>      <int>   <int>   <int>
##  1     1   10001        1        1        0     0          0       1       1
##  2     1   10002        1        1        0     0          0       1       1
##  3     1   10003        3        3        0     0          0       3       3
##  4     1   10004        1        1        0     0          0       1       1
##  5     1   10005        1        1        0     0          0       2       2
##  6     1   10006        2        2        0     0          0       4       4
##  7     1   10007        2        2        0     0          0       2       2
##  8     1   10008        1        1        0     0          0       1       1
##  9     1   10009        1        1        0     0          0       1       1
## 10     1   10010        1        1        0     1          1       1       1
## # ... with 37,123 more rows, and 98 more variables: COUNTY <int>, CITY <int>,
## #   DAY <int>, MONTH <int>, YEAR <int>, DAY_WEEK <int>, HOUR <int>,
## #   MINUTE <int>, NHS <int>, RUR_URB <int>, FUNC_SYS <int>, RD_OWNER <int>,
## #   ROUTE <int>, TWAY_ID <chr>, TWAY_ID2 <chr>, MILEPT <int>, LATITUDE <dbl>,
## #   LONGITUD <dbl>, SP_JUR <int>, HARM_EV <int>, MAN_COLL <int>, RELJCT1 <int>,
## #   RELJCT2 <int>, TYP_INT <int>, WRK_ZONE <int>, REL_ROAD <int>,
## #   LGT_COND <int>, WEATHER1 <int>, WEATHER2 <int>, WEATHER <int>,
## #   SCH_BUS <int>, RAIL <chr>, NOT_HOUR <int>, NOT_MIN <int>, ARR_HOUR <int>,
## #   ARR_MIN <int>, HOSP_HR <int>, HOSP_MN <int>, CF1 <int>, CF2 <int>,
…
summer <- joinedTables %>%
  filter((DAY >= 20 & MONTH >= 6) & (DAY <= 22 & MONTH <= 9)) %>%
  group_by(STATE, MAKE) %>%
  summarize(n = n()) %>%
  group_by(STATE) %>%
  filter(n == max(n)) %>%
  filter(is.na(MAKE) == FALSE) %>%
  arrange(desc(n))

## `summarise()` regrouping output by 'STATE' (override with `.groups` argument)

summer

## # A tibble: 48 x 3
## # Groups:   STATE [45]
##    STATE  MAKE     n
##    <int> <int> <int>
##  1     6    49    49
##  2    48    20    49
##  3    37    20    28
##  4    12    49    26
##  5    26    20    24
##  6    13    12    22
##  7    28    20    20
##  8    18    20    16
##  9     1    20    15
## 10     8    20    15
## # ... with 38 more rows

winter <- joinedTables %>%
  filter((DAY >= 21 & MONTH == 12) | (DAY >= 1 & MONTH >= 1) & (DAY <= 1 & MONTH <= 3)) %>%
  group_by(STATE, MAKE) %>%
  summarize(n = n()) %>%
  group_by(STATE) %>%
  filter(n == max(n)) %>%
  filter(is.na(MAKE) == FALSE) %>%
  arrange(desc(n))

## `summarise()` regrouping output by 'STATE' (override with `.groups` argument)

winter

## # A tibble: 56 x 3
## # Groups:   STATE [48]
##    STATE  MAKE     n
##    <int> <int> <int>
##  1    48    20    65
##  2    12    12    48
##  3    12    49    48
##  4    13    12    39
##  5    29    20    27
##  6    37    12    24
##  7     4    12    20
##  8    55    20    20
##  9    47    12    18
## 10    45    12    17
## # ... with 46 more rows
…
